<?xml version="1.0" standalone="no"?>
<!DOCTYPE svg PUBLIC "-//W3C//DTD SVG 1.1//EN" "http://www.w3.org/Graphics/SVG/1.1/DTD/svg11.dtd" >
<svg xmlns="http://www.w3.org/2000/svg">
<metadata>Generated by IcoMoon</metadata>
<defs>
<font id="icomoon" horiz-adv-x="1024">
<font-face units-per-em="1024" ascent="960" descent="-64" />
<missing-glyph horiz-adv-x="1024" />
<glyph unicode="&#x20;" horiz-adv-x="512" d="" />
<glyph unicode="&#xe900;" glyph-name="logout" d="M170 724.667v-596h342v-86h-342q-34 0-59 26t-25 60v596q0 34 25 60t59 26h342v-86h-342zM726 640.667l212-214-212-214-60 62 110 110h-434v84h434l-110 112z" />
<glyph unicode="&#xe901;" glyph-name="chevron" horiz-adv-x="2030" d="M1005.55-64l-1005.55 1024h369.009l627.315-645.766 618.090 645.766h415.135l-1024-1024z" />
<glyph unicode="&#xe902;" glyph-name="check" horiz-adv-x="1219" d="M481.524-64l-481.524 505.905 182.857 170.667 292.571-304.762 554.667 652.19 188.952-164.571-737.524-859.429z" />
<glyph unicode="&#xe903;" glyph-name="burger-menu" horiz-adv-x="1358" d="M0 903.425c0 33.945 22.63 56.575 56.575 56.575h1244.641c33.945 0 56.575-22.63 56.575-56.575s-22.63-56.575-56.575-56.575h-1244.641c-33.945 0-56.575 22.63-56.575 56.575zM0 445.171c0 33.945 22.63 56.575 56.575 56.575h1244.641c33.945 0 56.575-22.63 56.575-56.575s-22.63-56.575-56.575-56.575h-1244.641c-33.945 0-56.575 28.287-56.575 56.575zM56.575 49.149c-33.945 0-56.575-22.63-56.575-56.575s22.63-56.575 56.575-56.575h1244.641c33.945 0 56.575 22.63 56.575 56.575s-22.63 56.575-56.575 56.575h-1244.641z" />
</font></defs></svg>